1.1 chrX activation in liver Cancer mouse model (male)
…
gtffile <- makeTxDbFromGFF('~/cluster_home/ref/GENCODE/m38_vM25/gencode.vM25.chr_patch_hapl_scaff.annotation.gtf') %>% suppressMessages()

## Warning in .get_cds_IDX(mcols0$type, mcols0$phase): The "phase" metadata column contains non-NA values for features of type stop_codon. This information was
##   ignored.

mm10.gtf <- genes(gtffile) %>% as_tibble()
mm10.gtf

## # A tibble: 56,262 × 6
##    seqnames     start       end  width strand gene_id              
##    <fct>        <int>     <int>  <int> <fct>  <chr>                
##  1 chr3     108107280 108146146  38867 -      ENSMUSG00000000001.4 
##  2 chrX      77837901  77853623  15723 -      ENSMUSG00000000003.15
##  3 chr16     18780447  18811987  31541 -      ENSMUSG00000000028.15
##  4 chr7     142575529 142578143   2615 -      ENSMUSG00000000031.16
##  5 chrX     161082525 161258213 175689 +      ENSMUSG00000000037.17
##  6 chr11    108343354 108414396  71043 +      ENSMUSG00000000049.11
##  7 chr11    121237253 121255856  18604 +      ENSMUSG00000000056.7 
##  8 chr6      17281185  17289115   7931 +      ENSMUSG00000000058.6 
##  9 chr13      5861482   5870394   8913 +      ENSMUSG00000000078.7 
## 10 chr4     120405281 120530186 124906 +      ENSMUSG00000000085.16
## # ℹ 56,252 more rows

table(deg.ccl4_18w_vs_ctrl_18w$ensembl_id %in% mm10.gtf$gene_id)

## 
## TRUE 
## 5253

deg.ccl4_18w_vs_ctrl_18w.chrInfo <- left_join(deg.ccl4_18w_vs_ctrl_18w[, 1:5 ], mm10.gtf, by = c('ensembl_id' = 'gene_id'))
deg.ccl4_18w_vs_ctrl_18w.chrInfo

## # A tibble: 5,253 × 10
##    ensembl_id           log2FC_ccl4_18w_vs_c…¹ padj_ccl4_18w_vs_ctr…² symbol entrez seqnames  start    end  width strand
##    <chr>                                 <dbl>                  <dbl> <chr>   <dbl> <fct>     <int>  <int>  <int> <fct> 
##  1 ENSMUSG00000038576.…                  -6.43               2.29e-82 Susd4  9.69e4 chr1     1.83e8 1.83e8 132732 +     
##  2 ENSMUSG00000073842.…                  -9.5                3.26e-79 Mup7   1.00e8 chr4     6.01e7 6.01e7   4007 -     
##  3 ENSMUSG00000038092.6                 -10.8                9.38e-75 Hsd3b5 1.55e4 chr3     9.86e7 9.86e7  11619 -     
##  4 ENSMUSG00000022215.6                  -7.26               9.92e-67 Fitm1  6.87e4 chr14    5.56e7 5.56e7   1338 +     
##  5 ENSMUSG00000039519.6                  -4.93               6.55e-61 Cyp7b1 1.31e4 chr3     1.81e7 1.82e7 171389 -     
##  6 ENSMUSG00000096674.1                  -8.82               2.60e-60 Mup15  1.00e8 chr4     6.14e7 6.14e7   3954 -     
##  7 ENSMUSG00000096688.1                  -8.09               1.59e-52 Mup13  1.00e8 chr4     6.16e7 6.16e7   3943 -     
##  8 ENSMUSG00000078674.2                  -7.17               7.67e-52 Mup18  1.00e8 chr4     6.17e7 6.17e7   3960 -     
##  9 ENSMUSG00000025351.…                   5.62               1.46e-47 Cd63   1.25e4 chr10    1.29e8 1.29e8  11834 +     
## 10 ENSMUSG00000078675.9                  -6.33               2.07e-46 Mup13  1.00e8 chr4     6.15e7 6.15e7   3940 -     
## # ℹ 5,243 more rows
## # ℹ abbreviated names: ¹​log2FC_ccl4_18w_vs_ctrl_18w, ²​padj_ccl4_18w_vs_ctrl_18w
…
