03_mutations_ABswitch.R
…
genome.switch.18w.SNP <- bt.intersect(genome.switch.18w, snp.hc, c =T) %>% 
  set_colnames(c('seqname', 'start', 'end', 'geneNumber', 'comp_CCL4_18w', 'comp_CTRL_18w', 'numSNP'))

genome.switch.18w.SNP$locus <- seq(1, dim(genome.switch.18w.SNP)[1])

genome.switch.18w.SNP <- as_tibble(genome.switch.18w.SNP)
genome.switch.18w.SNP

## # A tibble: 12,821 × 8
##    seqname   start     end geneNumber comp_CCL4_18w comp_CTRL_18w numSNP locus
##    <chr>     <int>   <int>      <int> <chr>         <chr>          <int> <int>
##  1 chr1    3000000 3200000          2 B             B                  0     1
##  2 chr1    3200000 3400000          4 B             B                  1     2
##  3 chr1    3400000 3600000          6 B             B                  0     3
##  4 chr1    3600000 3800000          5 B             B                  1     4
##  5 chr1    3800000 4000000          2 B             B                  0     5
##  6 chr1    4000000 4200000          1 B             B                  0     6
##  7 chr1    4200000 4400000          3 B             B                  2     7
##  8 chr1    4400000 4600000          7 B             B                  1     8
##  9 chr1    4600000 4800000          8 B             B                  0     9
## 10 chr1    4800000 5000000          9 B             B                  2    10
## # … with 12,811 more rows
…
