3.visualization_of_sex_dependent_DEGs_of_LIHC
…
#-----------------------------------------------------#

stat.cancer_types.female <- read_rds('./data/stat.cancer_types.female.rds')
stat.cancer_types.male <- read_rds('./data/stat.cancer_types.male.rds')

1. Female LIHC

1.1 UP_DEG ratios per chromosome in female LIHC

gene_per_chr <- stat.cancer_types.female$LIHC %>% group_by(seqname) %>% summarise(gene_num= n())
gene_per_chr

## # A tibble: 23 × 2
##    seqname gene_num
##    <chr>      <int>
##  1 chr1        1782
##  2 chr10        634
##  3 chr11       1145
##  4 chr12        924
##  5 chr13        273
##  6 chr14        515
##  7 chr15        505
##  8 chr16        709
##  9 chr17       1027
## 10 chr18        232
## # ℹ 13 more rows

up_degs_in_LIHC_per_chr <- filter(stat.cancer_types.female$LIHC,  foldchage >=2) %>% 
                    group_by(seqname) %>% summarise(up_deg_num= n())

lihc_stat <- left_join(up_degs_in_LIHC_per_chr, gene_per_chr)

## Joining with `by = join_by(seqname)`

lihc_stat$ratio <- lihc_stat$up_deg_num / lihc_stat$gene_num
lihc_stat <- arrange(lihc_stat, desc(ratio))
lihc_stat

## # A tibble: 23 × 4
##    seqname up_deg_num gene_num  ratio
##    <chr>        <int>    <int>  <dbl>
##  1 chrX            48      730 0.0658
##  2 chr15           33      505 0.0653
##  3 chr2            69     1100 0.0627
##  4 chr6            55      909 0.0605
##  5 chr1           100     1782 0.0561
##  6 chr5            42      786 0.0534
##  7 chr20           23      460 0.05  
##  8 chr8            29      580 0.05  
##  9 chr17           48     1027 0.0467
## 10 chr10           29      634 0.0457
## # ℹ 13 more rows
…
